<?xml version="1.0" encoding="utf-8"?>
<!-- Generated by IcoMoon.io -->
<!DOCTYPE svg PUBLIC "-//W3C//DTD SVG 1.1//EN" "http://www.w3.org/Graphics/SVG/1.1/DTD/svg11.dtd">
<svg version="1.1" xmlns="http://www.w3.org/2000/svg" xmlns:xlink="http://www.w3.org/1999/xlink" width="26" height="32" viewBox="0 0 26 32">
<path fill="#444444" d="M14.194 23.488c0.58-0.377 0.96-1.010 0.96-1.728 0-1.155-0.986-2.092-2.202-2.092s-2.202 0.937-2.202 2.092c0 0.775 0.443 1.451 1.103 1.813l-0.637 5.552 1.813-0.060 1.812 0.060-0.646-5.637zM12.578 0h0.878c5.014 0 9.081 3.926 9.081 8.768v5.927c2.047 0.111 3.368 0.211 3.368 0.211v16.652c0 0-6.648 0.441-13.030 0.441-6.57 0-12.874-0.441-12.874-0.441v-16.652c0 0 1.379-0.107 3.497-0.221v-5.918c0-4.843 4.066-8.768 9.081-8.768zM5.634 9.397v5.185c2.145-0.094 4.686-0.172 7.226-0.172 2.662 0 5.322 0.083 7.54 0.181v-5.194c0-4.022-3.271-7.306-7.383-7.508-4.112 0.201-7.383 3.485-7.383 7.508z"></path>
</svg>
